…
### ISSP 2020

We will apply our functions and methods on issp2020, a dataset that
comes with the package. It was collected from a sample of students at
Aristotle University of Thessaloniki using the 2020 questionnaire of the
[International Social Survey Programme](https://issp.org/)

``` r
# preview of issp2020
issp2020 
#> # A tibble: 179 × 118
#>       id Q1a_1 Q1a_2 Q3a_1 Q3a_2    Q4  Q5_a  Q5_b  Q5_c  Q5_d    Q6    Q7    Q8
#>    <dbl> <dbl> <dbl> <dbl> <dbl> <dbl> <dbl> <dbl> <dbl> <dbl> <dbl> <dbl> <dbl>
#>  1    21     1     6     3     4     5     9     3     3     2     5     6     4
#>  2    22     1     2     2     4     2     7     3     4     5     3     7     4
#>  3    25     6     2     4     2     3     7     3     5     5     3     6     4
#>  4    26     1     6     2     4     3     8     3     5     5     4     2     3
#>  5    30     2     6     2     4     3     9     2     4     3     4     6     4
#>  6    31     1     6     1     2     2     7     5     7     5     4     9     4
#>  7    32     1     2     2     4     2    10     3     7     6     5     7     3
#>  8    33     1     5     2     4     3     9     6     7     7     4     7     3
#>  9    34     6     2     3     1     4     7     4     8     5     3     6     4
#> 10    35     1     2     1     2     3     7     5     5     8     3     2     4
#> # … with 169 more rows, and 105 more variables: Q9a <dbl>, Q9b <dbl>,
#> #   Q10_a <dbl>, Q10_b <dbl>, Q10_c <dbl>, Q10_c2 <dbl>, Q10_d <dbl>,
#> #   Q10_e <dbl>, Q10_e2 <dbl>, Q10_e3 <dbl>, Q10_f <dbl>, Q11a <dbl>,
#> #   Q11b <dbl>, Q11c <dbl>, Q11d <dbl>, Q12_a <dbl>, Q12_b <dbl>, Q12_c <dbl>,
#> #   Q12_d <dbl>, Q12_e <dbl>, Q12_e2 <dbl>, Q12_e3 <dbl>, Q12_f <dbl>,
#> #   Q12_g <dbl>, Q13_g <dbl>, Q13_f <dbl>, Q13_c <dbl>, Q13_a <dbl>,
#> #   Q13_a1 <dbl>, Q13_b <dbl>, Q13_b1 <dbl>, Q13_d <dbl>, Q13_e <dbl>, …
```
…
